.........
----------------------------------------------------------------------
Ran 9 tests in 0.002s

OK
Name               Stmts   Miss Branch BrPart  Cover   Missing
--------------------------------------------------------------
Diplomacy.py          89      0     52      1    99%   61->67
TestDiplomacy.py      51      0      2      1    98%   68->exit
--------------------------------------------------------------
TOTAL                140      0     54      2    99%
